^C:\USERS\ASIER.B\DESKTOP\CS260-LAB3\CS260-ASSIGNMENT-3\CLIENT\X64\DEBUG\CLIENT.OBJ
C:\USERS\ASIER.B\DESKTOP\CS260-LAB3\CS260-ASSIGNMENT-3\BIN\1\CLIENT.ILK
C:\USERS\ASIER.B\DESKTOP\CS260-LAB3\CS260-ASSIGNMENT-3\BIN\1\CLIENT.EXE
C:\USERS\ASIER.B\DESKTOP\CS260-LAB3\CS260-ASSIGNMENT-3\BIN\1\CLIENT.PDB
